Nip,Nama,Email,Phone,Gender,DOB,Join_date,Resign_date,status,Employee_ref (Kode Divisi)
00061192,DIANA RIZKY,d_rizky@bankmega.com,+6282208229199,F,1974-10,2000-06-12,,1,H50
99110831,YUNI LASTIANTO,yuni.lastianto@bankmega.com,,M,1959-06,1999-11-22,,1,H50
18080501,AGCHELLA MAULIA INDAH,agchella.indah@bankmega.com,+6282208220936,F,1994-08,2018-08-24,,1,H51
17046532,RIDWAN SUSENO,ridwan.suseno@bankmega.com,+6282208229940,M,1992-08,2018-08-20,,1,H51
07070011,DENI RINALDI,deni.rinaldi@bankmega.com,+6282208229390,M,1976-11,2007-07-16,,1,H51
20070839,ENGGAH RAMDANI,enggah.ramdani@bankmega.com,+6282208222992,M,1966-12,2020-07-06,,1,H51
05035555,IMAN SANTOSO,iman.santoso2@bankmega.com,+6282208226219,M,1973-09,2005-03-07,,1,H51
18018790,SITI ROHMAH,siti.rohmah@bankmega.com,+6282208222927,F,1994-10,2018-01-23,,1,H51
20034310,AHMAD AMIRUDDIN,ahmad.amiruddin@bankmega.com,+6282208224088,M,1992-07,2020-03-02,,1,H51
18039406,MAYA RETNO,maya.retno@bankmega.com,,F,1997-01,2018-03-29,,1,H51
07049424,AVIAN PRIYANTO,avian.p@bankmega.com,+6282208229389,M,1974-07,2007-04-02,,1,H51
04014233,SRI SUGIARTI,sri.sugiarti@bankmega.com,+6282208226131,F,1971-02,2004-01-05,,1,H52
04044566,OMAR SOEHARTO,omar.soeharto@bankmega.com,+6282208225019,M,1964-04,2004-04-19,,1,H52
03043617,MAYA INDAH SARI,maya.indah@bankmega.com,+6282208226339,F,1978-10,2003-04-01,,1,H52
11024678,RIRI HAERINA PURNAMASARI,riri.purnamasari@bankmega.com,+6282208227968,F,1987-10,2011-02-16,,1,H52
01112747,WALUYO DANIARTO,waluyo.daniarto@bankmega.com,+6282208227806,M,1973-11,2001-11-15,,1,H52
07069890,ADAM HARIS,adam.haris@bankmega.com,+6282208226236,M,1969-09,2007-06-04,,1,H52
00101485,LAILI NURAENI,laili.nuraeni@bankmega.com,+6282208225107,F,1973-07,2000-10-12,,1,H52
99030569,TRI UJI PRIYANTO,triuji.priyanto@bankmega.com,+6282208225773,M,1963-03,1999-03-29,,1,H52
01052328,VANINA CAROLINE,vanina.caroline@bankmega.com,+6282208228799,F,1976-08,2001-05-28,,1,H52
05065996,AMI SRIWAHYULI ANJAYANI,ami.sriwahyuli@bankmega.com,+6282208227383,F,1978-07,2005-06-27,,1,H53
13055808,MUHAMMAD REZA BARUS,muhammad.baruz@bankmega.com,+6282208221587,M,1987-02,2013-05-27,,1,H53
08011356,AMALIA RETNOSARI,amalia.retnosari@bankmega.com,+6282208228105,F,1982-03,2007-12-27,,1,H53
06047010,FATIMAH,fatimah.fatimah@bankmega.com,+6282208229371,F,1982-12,2006-04-24,,1,H53
22060728,ANNISA WIJAYANTI,annisa.wijayanti@bankmega.com,+6282208221536,F,1982-09,2022-06-06,,1,H53
13012811,ALAM PURBA,alam.purba@bankmega.com,+6282208225353,M,1975-04,2013-01-10,,1,H53
20111204,NUR SEPTIANA,nur.septiana@bankmega.com,+6282208225169,F,1988-09,2020-11-02,,1,H53
13034590,SETIOKO,setioko.setioko@bankmega.com,+6282208220239,M,1984-05,2013-03-11,,1,H53
08103989,ANWAR VIVERDY PURBA,anwar.purba@bankmega.com,+6282208225045,M,1964-10,2007-08-20,,1,H53
22040601,SAFIRA CHAERANI,safira.chaerani@bankmega.com,+6282208220364,F,1995-10,2022-04-04,,1,H53
22091497,ATIKA SARI,atika.sari@bankmega.com,,F,1991-11,2022-09-01,,1,H53
11045286,MASDALIPAH,masdalipah.masdalipah@bankmega.com,+6282208225888,F,1969-01,2011-04-04,,1,H53
09066464,NUR WIDARTO,nur.widarto@bankmega.com,+6282208227510,M,1981-09,2009-07-02,,1,H53
22091572,DWI PUTRI MEYNA PRABAWATI,dwi.prabawati@bankmega.com,+6282208225394,F,1979-05,2022-09-12,,1,H53
10092557,WYNA RANIANIDA GUMILANG,wyna.gumilang@bankmega.com,+6282208229809,F,1986-08,2010-09-22,,1,H53
22050556,MUHAMMAD FARHAN NAUFAL,farhan.naufal@bankmega.com,+6282208229610,M,1996-06,2022-05-09,,1,H53
07110687,GREGORIUS BRAM RASTADI,bram.rastadi@bankmega.com,+6282208227026,M,1968-02,2007-11-01,,1,H53
21070964,GLENARTO PRIADI,glenarto.priadi@bankmega.com,+6282208228322,M,1971-04,2021-07-12,,1,H53
06128329,RURIE PUSPITASARI,rurie.puspitasari@bankmega.com,+6282208226196,F,1978-02,2006-12-04,,1,H53
07059849,ADI NURYADI,adi.nuryadi@bankmega.com,+6282208227057,M,1982-09,2007-05-21,,1,H53
11035160,LULU SANI HARAHAP,lulu.harahap@bankmega.com,+6282208229226,F,1989-01,2011-03-28,,1,H53
08103872,WISNU TRIAJI,wisnu.triaji@bankmega.com,+6282208225664,M,1977-08,2008-10-06,,1,H53
06057090,TITIN SUPRIYATIN,titin.supriyatin@bankmega.com,+6282208220405,F,1980-06,2006-05-08,,1,H53
13076906,MAYA NURROHMAH AENI,maya.aeni@bankmega.com,+6282208229789,F,1982-05,2013-07-08,,1,H53
19031736,DAVID SUHERMON,david.suhermon@bankmega.com,+6282208228514,M,1988-10,2019-03-18,,1,H53
03023488,HILMAN INDRA PRAKASA,hilman.indraprakasa@bankmega.com,+6282208225250,M,1970-04,2003-02-03,,1,H53
17015603,ADHYATNIKA NUGRAHA,adhyatnika.nugraha@bankmega.com,+6282208222714,M,1990-02,2017-01-26,,1,H53
00101448,WIWIEK WIDYASTUTI,wiwiek.widyastuti@bankmega.com,+6282208225989,F,1973-04,2000-10-09,,1,H53
00101580,GALUH SETYO RINI,galuh.rini@bankmega.com,+6282208225535,F,1974-08,2000-10-30,,1,H53
18090659,HERU SETYA WIBOWO,heru.wibowo@bankmega.com,+6282208220575,M,1978-06,2018-09-24,,1,H53
01112719,LIA KAMELIA,lia.kamelia@bankmega.com,+6282208225423,F,1971-10,2001-11-05,,1,H53
17097485,DONOVAN CAESAR JONATHAN,donovan.jonathan@bankmega.com,+6282208223673,M,1986-11,2017-09-04,,1,H53
01112689,ARI RACHMAWATI,ari.rachmawati2@bankmega.com,+6282208225135,F,1968-02,2001-11-01,,1,H53
01102633,YUNAN FERRY OKTO IMAM S. PURBA,yunan.purba@bankmega.com,+6282208225117,M,1968-10,2001-10-01,,1,H53
17087405,MARTA,marta.1@bankmega.com,+6282208223481,F,1985-11,2017-08-21,,1,H53
16074010,EKO PRASETYO,eko.p@bankmega.com,+6282208221507,M,1981-10,2016-07-20,,1,H53
16074009,DJOKO ERRY KURNIAWAN,djoko.kurniawan@bankmega.com,+6282208221506,M,1980-11,2016-07-12,,1,H53
14038342,NOPI HIDAYATULOH,nopi.dayat@bankmega.com,+6282208221982,M,1987-11,2014-03-17,,1,H53
22122260,AMANDA DESVIANI PULUNGAN,amanda.pulungan@bankmega.com,+6282208225461,F,1990-12,2022-12-15,,1,H53
15030598,SAMUEL,samuel.hcmg@bankmega.com,+6282208222659,M,1989-11,2015-03-06,,1,H53
02063162,JOKO SURYO SUSANTO,joko.susanto@bankmega.com,+6282208225453,M,1971-02,2002-06-25,,1,H53
99090794,AGNES KRISTIYANI,agnes.kristiyani@bankmega.com,+6282208225125,F,1967-01,1999-09-13,,1,H53
00091352,NINDYA ANGGARINI,nindya.anggarini@bankmega.com,+6282208225481,F,1972-02,2000-09-13,,1,H53
19124169,TRI APRILIAN PRABOWO,tri.prabowo@bankmega.com,+6282208220180,M,1988-04,2019-12-02,,1,H53
15091506,PUTRA PADEWA,putra.padewa@bankmega.com,+6282208222239,M,1992-11,2016-11-29,,1,H53
00101443,SRI RUDATIN,sri.rudatin@bankmega.com,+6282208226902,F,1966-01,2000-10-09,,1,H53
19082517,NURUL AMRI JAYADI,amri.jayadi@bankmega.com,,M,1994-10,2019-08-01,,1,H53
17097414,NETTY DELIMA,netty.simanjuntak@bankmega.com,+6282208223650,F,1976-04,2017-09-06,,1,H53
08113836,DEDE TUHANA,dede.tuhana@bankmega.com,+6282208227777,F,1982-04,2008-11-03,,1,H54
18070233,BRAMANTYO AGUNG PUTRA,bramantyo.putra@bankmega.com,+6282208223194,M,1993-04,2018-07-16,,1,H54
15040704,FIENNY YUNIANDARI,fienny.yuniandari@bankmega.com,+6282208220711,F,1978-06,2015-04-15,,1,H54
19052086,ANDRE IKA TRIJAYA,andre.trijaya@bankmega.com,+6282208220220,M,1994-10,2019-05-15,,1,H54
11092297,RINA,rina.rina@bankmega.com,+6282208228933,F,1986-11,2011-09-05,,1,H54
21060813,TAUFAN NALENDRA PRATAMA,taufan.pratama@bankmega.com,+6282208220802,M,1984-02,2021-06-14,,1,H54
11045509,EGA RAMDHANSYAH,ega.ramdhansyah@bankmega.com,+6282208225255,M,1985-06,2011-04-05,,1,H54
17046392,SEPTIANDI WIBOWO,septiandi.wibowo@bankmega.com,+6282208223000,M,1990-09,2017-04-25,,1,H54
10092628,SUWANDA DINATA,suwanda.dinata@bankmega.com,+6282208226969,M,1982-10,2010-09-01,,1,H54
17087140,MUHAMMAD RORY GIRINDRA,muhammad.girindra@bankmega.com,+6282208220809,M,1986-02,2017-08-01,,1,H54
10113686,ERVIN AFRILIANTO BACHEL,ervin.bachel@bankmega.com,+6282208229499,M,1985-04,2010-11-15,,1,H54
00111678,EVA MACHLIA,eva.machlia@bankmega.com,+6282208228889,F,1974-05,2000-11-20,,1,H54
03053733,LISA SEPTY KUMALA,lisa.septy@bankmega.com,+6282208227171,F,1979-09,2003-05-12,,1,H54
06057121,SAPTO PRASETYO,sapto.prasetyo@bankmega.com,+6282208225714,M,1979-12,2006-05-22,,1,H54
07018735,MELZA YUNITA,melza.yunita@bankmega.com,+6282208228181,F,1981-03,2007-01-16,,1,H54
22101665,MELKI SEDEK SEMBIRING,melki.sembiring@bankmega.com,+6282208220179,M,1992-08,2022-10-03,,1,H54
03104081,MUFID TAMYIZI,mufid.tamyizi@bankmega.com,+6282208225528,M,1972-01,2003-10-06,,1,H54
11056855,SITA AJANI SUKMA,sita.sukma@bankmega.com,+6282208220266,F,1988-04,2011-05-16,,1,H54
07059818,RINI DUMASARI,rini.dumasari@bankmega.com,+6282208229394,F,1978-08,2007-05-21,,1,H54
01021987,RARAS INDRASTUTI,raras.indrastuti@bankmega.com,+6282208225454,F,1969-09,2001-02-05,,1,H54
03053749,ARINTO PRASETIYO ADI,arinto.adi@bankmega.com,+6282208225074,M,1974-11,2003-05-26,,1,H54
00091364,SARY FARAHDINA,sary.farahdina@bankmega.com,+6282208225470,F,1968-10,2000-09-18,,1,H54
04054692,PRIMANTI SETIORINI,primanti.setiorini@bankmega.com,+6282208228080,F,1980-06,2004-05-24,,1,H54
22050669,M. ADE KURNIAWAN,ade.kurniawan@bankmega.com,+6282208228586,M,1983-05,2022-05-24,,1,H54
08062997,HARDIYANTO,hardiyanto.001@bankmega.com,+6282208226770,M,1980-08,2008-06-02,,1,H54
22091664,WILLY,willy.willy@bankmega.com,+6282208220078,M,1981-03,2022-09-19,,1,H54
14068866,MOCHAMAD MAHAR DIYAR,mahar.diyar@bankmega.com,+6282208220579,M,1982-03,2014-06-09,,1,U54
11057042,NURHIKMA YANDRA,nurhikma.yandra@bankmega.com,+6282208222695,F,1987-06,2011-05-23,,1,U54
06016809,ARDIAN CAHYO NUGROHO,ardian.nugroho@bankmega.com,+6282208226199,M,1980-02,2006-01-19,,1,U54
03083906,DAVID ALEXANDER,david.alexander@bankmega.com,+6282208225556,M,1972-10,2003-08-11,,1,U54
15101777,CHRISTIANA MARIA DAMANIK,christiana.damanik@bankmega.com,+6282208220882,F,1962-04,2015-10-21,,1,U54
15070987,BRIGITTA CATHARINA RETNO LARASATI,brigitta.larasati@bankmega.com,+6282208220770,F,1989-03,2015-07-01,,1,U54
05086182,GUGUN GUNAWAN,gugun.gunawan@bankmega.com,+6282208225314,M,1971-02,2005-08-01,,1,U54
02093276,SHINTA AGUSTIN,shinta.agustin@bankmega.com,+6282208226552,F,1973-08,2002-09-02,,1,U54
11024673,HU ISAN THENARIA,huisan.thenaria@bankmega.com,+6282208229366,F,1988-01,2011-02-16,,1,U54
07049546,GILANG ANANTA PRIYA,gilang.ananta@bankmega.com,+6282208228496,M,1981-10,2007-04-16,,1,U54
19113070,HANNY INDAH WURDANI,hanny.wurdani@bankmega.com,+6282208222957,F,1992-07,2019-11-04,,1,I02
23020226,LILIK ZAHRA,lilik.zahra@bankmega.com,+6282208220902,F,1997-08,2023-02-02,,1,I02
18080454,FERDY INDRAWAN SAPUTRA,ferdy.saputra@bankmega.com,+6282208228670,M,1989-09,2018-08-23,,1,I02
18039078,ANTONIUS GEMA RIVANO GIANTORO,antonius.gema@bankmega.com,+6282208228538,M,1992-04,2018-03-01,,1,I02
23020225,JULIUS JOHAN,julius.johan@bankmega.com,+6282208220784,M,2000-07,2023-02-02,,1,I02
17025627,DODI DARMADI,dodi.darmadi@bankmega.com,+6282208222799,M,1975-12,2017-02-07,,1,I02
23020217,ADHITYA BATHARA SATYA PASANDE,adhitya.pasande@bankmega.com,+6282208221909,M,2000-06,2023-02-02,,1,I02
20060796,REZKY PRATOMO,rezky.pratomo@bankmega.com,+6282208228715,M,1995-11,2020-06-02,,1,I02
23020223,IWAN HADI SETIAWAN,iwan.setiawan@bankmega.com,+6282208221476,M,1997-06,2023-02-02,,1,I02
20101061,MUHAMAD RIZKI HAMID,rizki.hamid@bankmega.com,+6282208220386,M,1988-12,2020-10-01,,1,I02
15101668,RANGGA SETIAWAN SAPUTRA,rangga.saputra@bankmega.com,+6282208220871,M,1987-12,2015-10-05,,1,I02
14068960,MUKHAIDOR,mukhaidor.edor@bankmega.com,+6282208222250,M,1977-07,2014-06-23,,1,I02
19011426,KEVIN ADIYASA LUMELLE,kevin.lumelle@bankmega.com,+6282208229918,M,1994-08,2020-05-04,,1,I02
23030370,TESA PAJAR SETIA,tesa.setia@bankmega.com,,F,1996-10,2023-03-06,,1,I02
18111050,EMIR SYAIFULLAH,emir.syaifullah@bankmega.com,+6282208221310,M,1977-10,2018-11-12,,1,I02
19011428,MUHAMMAD ADIWIJAYA,adiwijaya.adiwijaya@bankmega.com,+6282208229932,M,1997-06,2020-05-04,,1,I02
21091359,MUHAMMAD FAHMI,muhammad.fahmi@bankmega.com,+6282208228337,M,1988-05,2021-09-09,,1,I02
23020229,RIZKY NURFAN THARIQ,rizky.thariq@bankmega.com,+6282208220907,M,1996-09,2023-02-02,,1,I02
23020228,MUHAMMAD FAISHAL RAHMAN,faishal.rahman@bankmega.com,+6282208223114,M,1998-03,2023-02-02,,1,I02
23020227,MOCH FEBRIANSYAH TRISNADI,febriansyah.trisnadi@bankmega.com,+6282208220219,M,1999-02,2023-02-02,,1,I02
19011417,AZELYA RESTU RACHMANDARI,azelya.restu@bankmega.com,+6282208229901,F,1996-05,2020-05-04,,1,I02
19011436,RISPANDANTA KABAN,rispandanta.kaban@bankmega.com,+6282208221974,M,1996-04,2020-05-04,,1,I02
23020230,SHOFRIZ FATIH HILMI,shofriz.hilmi@bankmega.com,+6282208220881,M,1999-03,2023-02-02,,1,I02
16043098,DIDIK MARGIANTO,didik.margianto@bankmega.com,+6282208221102,M,1982-12,2016-04-04,,1,I02
16032856,GUNTUR HASIHOLAN SIAGIAN,guntur.siagian@bankmega.com,+6282208224089,M,1985-04,2016-03-07,,1,I02
23020231,YOAN AMRI AKBAR,yoan.akbar@bankmega.com,+6282208220169,M,1999-04,2023-02-02,,1,I02
23020224,JOHN SUNG,john.sung@bankmega.com,+6282208220537,M,2000-02,2023-02-02,,1,I02
23020222,HAIKAL RAVENDY YUSMANANDA,haikal.yusmananda@bankmega.com,+6282208221253,M,1997-08,2023-02-02,,1,I02
22070991,ALIF DHIASHIDQI PRAWIRA,alif.prawira@bankmega.com,,M,1999-05,2022-07-01,,1,I02
21081072,RD. ERIK PRATAMA,rd.pratama@bankmega.com,+6282208227013,M,1984-06,2021-08-02,,1,I02
21040529,EDY SUSANTO,edy.susanto@bankmega.com,+6282208220927,M,1998-04,2021-04-12,,1,I02
22122061,FAUZAN BIMA PUTRA KENCANA,fauzan.kencana@bankmega.com,,M,1998-08,2022-12-01,,1,I02
09045760,TEGUH MUGIYONO,teguh.mugiyono@bankmega.com,+6282208229228,M,1981-09,2009-04-06,,1,I02
22071086,ALBERT YOSIA GUNAWAN,albert.gunawan@bankmega.com,,M,1999-07,2022-07-11,,1,I02
22020283,FARHAN,farhan.farhan@bankmega.com,+6282208220524,M,2000-01,2022-02-15,,1,I02
22101879,ALEX JHOSAN ABDILLAH,alex.abdillah@bankmega.com,,M,1998-03,2022-10-24,,1,I02
22101878,AMI SETIAWAN,ami.setiawan@bankmega.com,,M,1981-09,2022-10-20,,1,I02
11014283,YOYO JUHARTOYO,yoyo.juhartoyo@bankmega.com,+6282208227592,M,1965-10,2011-01-05,,1,I02
22010136,MOCHAMAD ARIVIANTO NUR ADLI,arivianto.adli@bankmega.com,+6282208229923,M,1994-07,2022-01-24,,1,I02
09128409,WAHYU LESTARI,wahyu.lestari@bankmega.com,+6282208227682,F,1984-07,2009-12-07,,1,I02
21111714,RETNO ASIH MURNIATI,retno.murniati@bankmega.com,,F,1997-09,2021-11-08,,1,I02
21081122,ARIF KADARMANTO PUTRO,arif.putro@bankmega.com,,M,1997-01,2021-08-09,,1,I02
21081123,HIYSAM ASH SHIDDIGIE,hiysam.shiddigie@bankmega.com,+6282208220965,M,1997-07,2021-08-09,,1,I02
21111658,FYAN ESTU WIDYANTORO,fyan.widyantoro@bankmega.com,,M,1991-03,2021-11-01,,1,I02
21111660,NATASHA ALYAA ANINDYAPUTRI,natasha.alyaa@bankmega.com,+6282208220332,F,1998-07,2021-11-01,,1,I02
06097554,AGUS SUBARKAH,agus.subarkah@bankmega.com,+6282208228330,M,1974-06,2006-09-11,,1,I02
20121414,WYLFRITZ TYSON SIANTURI,wylfritz.sianturi@bankmega.com,+6282208226586,M,1994-05,2020-12-01,,1,I02
20101194,ADI JANUARDI,adi.januardi@bankmega.com,+6282208223896,M,1995-01,2020-10-22,,1,I02
23020221,DUAN JE MARTIKO MANURUNG,duan.manurung@bankmega.com,+6282208221057,M,1999-05,2023-02-02,,1,I02
23020220,DENDY SEPTIAN ARMANDA,dendy.armanda@bankmega.com,+6282208221699,M,1999-09,2023-02-02,,1,I02
23020219,DAIVA AYALA KHANSA,daiva.khansa@bankmega.com,+6282208221861,M,1999-07,2023-02-02,,1,I02
13034882,JULIUS,julius.akbar@bankmega.com,+6282208229820,M,1978-07,2013-03-27,,1,I02
23020218,CAROLUS RADITYA,carolus.raditya@bankmega.com,+6282208221825,M,1999-11,2023-02-02,,1,I02
20111225,MUHAMAD RIZKY ESA ARIONO,rizky.esa@bankmega.com,+6282208222589,M,1997-06,2020-11-03,,1,I02
20111226,ANDHIKA HARUN AL ROSYID,andhika.rosyid@bankmega.com,+6282208222489,M,1997-09,2020-11-03,,1,I02
20111229,NORMA IRKHAM MAULANA,norma.maulana@bankmega.com,+6282208222032,M,1998-07,2020-11-03,,1,I02
12067929,ARI RUDIYANTO,ari.rudiyanto@bankmega.com,+6282208229662,M,1968-04,2012-06-01,,1,I02
20111232,SPANICA PAMFILIA LINRI,spanica.linri@bankmega.com,+6282208229784,F,1997-08,2020-11-03,,1,I02
12090389,DANIEL MARDIANTO,daniel.mardianto@bankmega.com,+6282208220308,M,1974-04,2012-09-10,,1,I02
20111231,SAEPUL ANWAR,saepul.anwar@bankmega.com,+6282208227493,M,1996-11,2020-11-03,,1,I02
97040378,LIANA LYLIE,liana.lylie@bankmega.com,+6282208225110,F,1968-07,1997-04-01,,1,I04
18080358,SALIVIAN SELWYN PUTRA,salivian.selwyn@bankmega.com ,+6282208221262,M,1996-08,2019-12-20,,1,I04
18028857,DWI WIKANDYARONI,dwi.wikandyaroni@bankmega.com,+6282208225764,M,1969-03,2018-02-19,,1,I04
18059572,SANTOSO WIBOWO,santoso.wibowo@bankmega.com,+6282208228890,M,1977-04,2018-05-07,,1,I04
18100704,ANOM YEKTI LUHUR PANGARSO,anom.pangarso@bankmega.com,+6282208222705,M,1983-08,2018-10-04,,1,I04
22050679,STEPHANIA GLORIE SUNARTI NIMANUHO,stephania.nimanuho@bankmega.com,,F,1996-12,2022-05-23,,1,I04
19092837,IRENA NOVITA WIDJAYA,irena.widjaya@bankmega.com,+6282208220600,F,1988-11,2019-09-12,,1,I04
19072468,TIARA KUSUMADEWI,tiara.dewi@bankmega.com,+6282208223245,F,1991-04,2019-07-29,,1,I04
21030441,NADIA GUSTIARA KUSNADI,nadia.kusnadi@bankmega.com,+6282208223980,F,1998-08,2022-03-18,,1,I04
19031757,ELSE PRIMADEVI,else.primadevi@bankmega.com,+6282208222522,F,1985-07,2019-03-18,,1,I04
19011429,MUHAMMAD TANDRA UTAMA,tandra.utama@bankmega.com,+6282208229935,M,1997-07,2020-05-04,,1,I04
16114977,CHANDRA JATNIKA,chandra.jatnika@bankmega.com,+6282208221887,M,1985-06,2016-11-02,,1,I04
22101737,AGUS RIANTO,agus.rianto@bankmega.com,,M,1980-08,2022-10-03,,1,I04
19011419,DEVIN AKBAR RIZALDI,devin.akbar@bankmega.com,+6282208229906,M,1995-10,2020-05-04,,1,I04
18080350,JONATHAN BAGUS PRADHANA BASOEKI,jonathan.bagus@bankmega.com ,+6282208221256,M,1997-07,2019-12-20,,1,I05
18080351,LYLA PAMELA,lyla.pamela@bankmega.com ,+6282208221257,F,1995-01,2019-12-20,,1,I05
00031022,NURCAHYO WAHYU HARTONO,nurcahyo.hartono@bankmega.com,+6282208225137,M,1967-09,2000-03-01,,1,I05
20101137,DENNYS TITA,dennys.tita@bankmega.com,+6282208227689,M,1991-10,2020-10-12,,1,I05
21030427,GENTA RAMA SUFIS,genta.sufis@bankmega.com,+6282208223354,M,1998-12,2022-03-18,,1,I05
21030450,MUHAMMAD YASER M,yaser.m@bankmega.com,+6282208223590,M,1998-03,2022-03-18,,1,I05
22050568,MUHAMMAD YUSUF MAULANA,yusuf.maulana@bankmega.com,+6282208229432,M,1998-07,2022-05-09,,1,I05
19011418,BAGUS IKHSAN BAGASKARA,bagus.bagaskara@bankmega.com,+6282208229905,M,1995-04,2020-05-04,,1,I05
16125365,ACHMAD AKBAR SHIDDIQ,achmad.shiddiq@bankmega.com,+6282208222633,M,1983-02,2016-12-19,,1,I05
11014445,INTAN INDRIANI,intan.indriani@bankmega.com,+6282208223967,F,1983-04,2011-01-12,,1,I05
15020468,DIDIE ABDILAH ALI,didie.ali@bankmega.com,+6282208223263,M,1991-10,2015-02-12,,1,I05
11014274,MADE HENDRAWAN,made.hendrawan@bankmega.com,+6282208221378,M,1983-04,2011-01-03,,1,I05
08093761,SENTOT ZULKARNAIN,sentot.zulkarnain@bankmega.com,+6282208220721,M,1978-07,2008-09-22,,1,I05
05055850,UTOMO BUDI RAHARDJO,utomo.rahardjo@bankmega.com,+6282208225033,M,1962-09,2005-05-16,,1,I05
16104912,AHMAD SATIRI,ahmad.satiri@bankmega.com,+6282208227045,M,1987-09,2016-10-24,,1,I05
04105063,BONDAN RATIH AV. ANGGITA,bondan.ratih@bankmega.com,+6282208220841,F,1968-03,2004-10-18,,1,I05
09056150,AGUNG KURNIAWAN,agung.kurniawan@bankmega.com,+6282208220473,M,1985-01,2009-05-25,,1,I05
04094945,BHIMANTORO,bhimantoro.bimo@bankmega.com,+6282208229285,M,1969-11,2004-09-07,,1,I05
03023489,SOPHIA YUNIAR,sophia.yuniar@bankmega.com,+6282208220842,F,1979-06,2003-02-03,,1,I05
16063710,MUBARRIK AHMAD,mubarrik.ahmad@bankmega.com,+6282208224700,M,1977-03,2016-06-13,,1,I05
03023532,NOVEL HUSIEN,novel.husien@bankmega.com,+6282208225650,M,1967-03,2003-02-24,,1,I05
14089394,NURFIQIH ISMAIL HARDIPUTRA,nurfiqih.hardiputra@bankmega.com,+6282208222140,M,1989-10,2015-11-25,,1,I05
14089390,SEPTIKA OKKYLA,septika.okkyla@bankmega.com,+6282208222123,F,1991-10,2015-11-25,,1,I05
18069975,JHONEDDI SETIAWAN,jhoneddi.setiawan@bankmega.com,+6282208226287,M,1990-06,2018-06-21,,1,I05
07049437,EDDY SUTRISNA,eddy.sutrisna@bankmega.com,+6282208220766,M,1973-08,2007-04-02,,1,I05
11068216,RIFQI FUADI,rifqi.fuadi@bankmega.com,+6282208221380,M,1989-04,2011-06-20,,1,I05
07049552,IRFAN KURNIAWAN,irfan.kurniawan@bankmega.com,+6282208220472,M,1972-02,2007-04-16,,1,I05
01062359,MAGDALENA SUSILAWATI,magdalena.susilowati@bankmega.com,+6282208220853,F,1972-07,2001-06-11,,1,I05
17128626,FATHARANI SHOLIHAT,fatharani.sholihat@bankmega.com,+6282208226375,F,1994-03,2019-05-29,,1,I05
06107918,FITRIYATNO,fitriyatno.afit@bankmega.com,+6282208226420,M,1970-12,2006-10-12,,1,I05
08032115,ARRIE RAFLENTINO WIJAYA,arrie.wijaya@bankmega.com,+6282208226547,M,1984-03,2008-03-24,,1,I05
11105555,R.HUTARIKRAMA LISDIANTORO.T,r.hutarikrama@bankmega.com,+6282208220389,M,1974-12,2011-10-03,,1,I05
17087455,LILIS AGNES,lilis.agnes@bankmega.com,+6282208229072,F,1990-09,2017-08-25,,1,I05
12111428,ZERRY NIKSON,zerry.nikson@bankmega.com,+6282208229628,M,1984-08,2012-11-05,,1,I05
13045022,YUSUF FIRDAUS,yusuf.firdaus@bankmega.com,+6282208228543,M,1986-05,2013-04-08,,1,I05
16053697,PIPIT NOPITA,pipit.nopita@bankmega.com,+6282208229155,F,1988-11,2016-05-25,,1,I05
19011424,FRISKA ULFADINA,friska.ulfadina@bankmega.com,+6282208229916,F,1995-11,2020-05-04,,1,I06
21071014,ACHMAD AGUSTIYATAMA,achmad.agustiyatama@bankmega.com,+6282208228268,M,1973-08,2021-07-15,,1,I06
19011435,YA DAUW WIRA BUANA,wira.buana@bankmega.com,+6282208229952,M,1992-02,2020-05-04,,1,I06
19011420,DWI PRASETYO,dwi.prasetyo@bankmega.com,+6282208229910,M,1995-12,2020-05-04,,1,I06
22010168,NABILA PRIHANDINA PURWANTO,nabila.purwanto@bankmega.com,+6282208227518,F,1997-05,2023-02-03,,1,I06
22010163,JOSHUA PAUL NADEAK,joshua.nadeak@bankmega.com,+6282208223757,M,1999-01,2023-02-03,,1,I06
22010172,PUTI ADILLA GHASSANI,puti.ghassani@bankmega.com,+6282208226712,F,1998-04,2023-02-03,,1,I06
17046524,DIAN RATNASARI SYAM BELLA,dian.bella@bankmega.com,+6282208227284,F,1994-06,2018-08-20,,1,I06
22010174,RAMA MAHATVA,rama.mahatva@bankmega.com,+6282208226619,M,2001-11,2023-02-03,,1,I06
22010005,HAFIDZ NUGROHO,hafidz.nugroho@bankmega.com,,M,1996-03,2022-01-03,,1,I14
22070996,ZAHRA FAUZIYYAH,zahra.fauziyyah@bankmega.com,,F,1993-07,2022-07-01,,1,I14
21070906,SAMUDRA ANDALAN,samudra.andalan@bankmega.com,,M,1990-04,2021-07-01,,1,I14
22010004,AHMAD JOURDAN,ahmad.jourdan@bankmega.com,,M,1994-06,2022-01-03,,1,I14
22070995,DAVIT FEBUAN,davit.febuan@bankmega.com,,M,1985-02,2022-07-01,,1,I14
22020184,ISMAIL HIDAYAT,ismail.hidayat@bankmega.com,,M,1984-09,2022-02-02,,1,I14
22071088,ESIS RAMADHAN,esis.ramadhan@bankmega.com,,M,1994-02,2022-07-11,,1,I14
22060838,AUSI YONANTHA,ausi.yonantha@bankmega.com,,M,1982-02,2022-06-15,,1,I14
22081468,MARIA DAVINA AGUSTIEN,maria.agustien@bankmega.com,,F,1998-08,2022-08-24,,1,I14
22081341,RUTH MARYA,ruth.marya@bankmega.com,,F,1988-04,2022-08-08,,1,I14
21040532,FRANSANGGA YONAS,fransangga.yonas@bankmega.com,,M,1984-03,2021-04-12,,1,I14
21050666,TEDDY DARMA,teddy.darma@bankmega.com,,M,1996-06,2021-05-17,,1,I14
21091442,HANIFAH PERDILLA ONISSA,hanifah.onissa@bankmega.com,,F,1996-04,2021-09-20,,1,I14
21060724,SIWI PUSPITANINGTYAS,siwi.puspitaningtyas@bankmega.com,,F,1995-12,2021-06-02,,1,I14
21060722,ADITYA WIJOYO,aditya.wijoyo@bankmega.com,,M,1989-02,2021-06-02,,1,I14
22020278,BERTA SIHITE,berta.sihite@bankmega.com,,F,1990-03,2022-02-10,,1,I14
22070985,M. IQBAL FERDIANSYAH,iqbal.ferdiansyah@bankmega.com,,M,1985-02,2022-07-04,,1,I14
22060864,GELAR BUDIDARMA DJAMAL,gelar.djamal@bankmega.com,,M,1993-06,2022-06-20,,1,I14
21111650,HASAN GHOZALI,hasan.ghozali@bankmega.com,,M,1995-10,2021-11-01,,1,I14
21101603,ANDREYZAL,andreyzal.andreyzal@bankmega.com,,M,1980-01,2021-10-21,,1,I14
21081208,ERWIN HARDIANTO SITORUS,erwin.sitorus@bankmega.com,,M,1991-08,2021-08-18,,1,I14
21101588,KENANYA GUSTI MAKARYA,kenanya.makarya@bankmega.com,,M,1989-11,2021-10-18,,1,I14
22060744,KELVIN PRAYITNO,kelvin.prayitno@bankmega.com,,M,1994-12,2022-06-06,,1,I14
22050681,AGUNG SEPTA PRATAMA,agung.pratama@bankmega.com,,M,1995-09,2022-05-24,,1,I14
21091330,FREDY SETIAWAN,fredy.setiawan@bankmega.com,,M,1978-02,2021-09-06,,1,I14
21091353,PANJI ARIBOWO,panji.aribowo@bankmega.com,,M,1984-04,2021-09-08,,1,I14
22060755,RIKIANTO BUDIARTO,rikianto.budiarto@bankmega.com,+6282208229817,M,1974-06,2022-06-07,,1,I14
22030523,EFENDI,efendi.dged@bankmega.com,,M,1985-09,2022-03-24,,1,I14
21071055,FITRA RAHMATSYAH,fitra.rahmatsyah@bankmega.com,,M,1985-06,2021-07-22,,1,I14
21121838,PRIYO DWI SEDYATMO,priyo.sedyatmo@bankmega.com,,M,1990-04,2021-12-01,,1,I14
22010007,VENNY SULISTYANI,venny.sulistyani@bankmega.com,,F,1989-07,2022-01-03,,1,I14
21081075,FRIDHO KESUMA PRATAMA,fridho.pratama@bankmega.com,,M,1994-02,2021-08-02,,1,I14
22030415,ANDRE GEORGE JACOBUS,andre.jacobus@bankmega.com,,M,1991-01,2022-03-07,,1,I14
22060836,FAHRY ABDULLAH,fahry.abdullah@bankmega.com,,M,1989-04,2022-06-13,,1,I14
22060835,DHITA ANGRENY,dhita.angreny@bankmega.com,,F,1993-04,2022-06-13,,1,I14
21081125,RIZKY ROMADON,rizky.romadon@bankmega.com,,M,1997-01,2021-08-09,,1,I14
22050680,I GEDE BARA YUDA GAUTAMA,igede.gautama@bankmega.com,,M,1992-01,2022-05-23,,1,I14
22122118,STEFANUS IVAN SETIAWAN,stefanus.setiawan@bankmega.com,,M,1997-03,2022-12-12,,1,I14
23030376,AKMAL SAFITRA,akmal.safitra@bankmega.com,,M,1997-08,2023-03-06,,1,I14
18111206,AMANDA HUSNA,amanda.husna@bankmega.com,,F,1988-03,2018-11-30,,1,I14
19113233,ASHADI MULIAWAN SEJATI,ashadi.sejati@bankmega.com,,M,1990-09,2019-11-25,,1,I14
20101060,EDGAR GERRIANO,edgar.gerriano@bankmega.com,,M,1988-10,2020-10-01,,1,I14
20091039,ANAN FAUZI,anan.fauzi@bankmega.com,,M,1987-07,2020-09-21,,1,I14
20014204,ILMA DINNIA ALGHANI,ilma.alghani@bankmega.com,,F,1996-07,2020-01-02,,1,I14
16022818,LERRY YAHYA SURANTA GINTING,lerry.ginting@bankmega.com,+6282208223362,M,1994-02,2017-06-21,,1,I14
22081261,TEDI WAHYUDI,tedi.wahyudi@bankmega.com,,M,1984-09,2022-08-01,,1,I14
19062104,EVELYN NAFTALIE,evelyn.naftalie@bankmega.com,,F,1988-09,2019-06-10,,1,I14
20024348,ADITYA FADHLI RAHMAN,aditya.fadhli@bankmega.com,,M,1997-12,2020-02-01,,1,I14
22112060,YOSUA YORDANIO,yosua.yordanio@bankmega.com,,M,1995-11,2022-11-14,,1,I14
19052023,IMAM KUSUMA DWIPRAJA,imam.dwipraja@bankmega.com,,M,1992-05,2019-05-06,,1,I14
21030363,TASYA SERAPHINE W,tasya.seraphine@bankmega.com,,F,1998-10,2021-03-15,,1,I14
22101768,DARWIN,darwin.darwin@bankmega.com,,M,1987-01,2022-10-17,,1,I14
21030284,PRANA SIDHI BUDIPRIATNA,prana.budipriatna@bankmega.com,,M,1988-06,2021-03-01,,1,I14
21020157,ARMILIA CHIESSA ADRIANY,armilia.adriany@bankmega.com,+6282208220509,F,1983-07,2021-02-01,,1,I14
21010100,MUHAMMAD HADI,muhammad.hadi@bankmega.com,,M,1993-10,2021-01-18,,1,I14
21010005,ADI PURNAMA,adi.purnama@bankmega.com,,M,1992-04,2021-01-04,,1,I14
19103041,I GUSTI AGUNG AYU DIANINTHA ANDARI,dianintha.andari@bankmega.com,,F,1994-12,2019-10-17,,1,I14
20121445,EDI SURYADI,edi.suryadi@bankmega.com,,M,1979-09,2020-12-15,,1,I14
22111955,AGUSTINA SILITONGA,agustina.silitonga@bankmega.com,,F,1993-08,2022-11-01,,1,I14
20111301,MAULVY AUFAR MUDZAKIR,maulvy.mudzakir@bankmega.com,,M,1992-01,2020-11-19,,1,I14
20024345,RADEN TRYXIANA HAFSARI,raden.tryxiana@bankmega.com,,F,1991-10,2020-02-01,,1,I14
23010046,Y.B. HARIANTONO,ybhariantono@bankmega.com,,M,1966-10,2023-01-02,,1,I15
17077095,VITA NOOR OCTAVIA,Vita.Octavia@bankmega.com,+6282208222299,F,1983-10,2017-07-24,,1,I15
23020241,NADIANA YEMIN MUKTI,nadiana.mukti@bankmega.com,+6282208226602,M,1998-11,2023-02-02,,1,O52
22020282,R. ASTERO NANDITO,astero.nandito@bankmega.com,+6282208228926,M,1998-09,2022-02-14,,1,O52
23020242,ODITA EKA CAHYANI,odita.cahyani@bankmega.com,+6282208222466,F,1998-08,2023-02-02,,1,O52
23020239,"MAMESAH, IVAN CHRISTIAN",mamesah.christian@bankmega.com,+6282208223942,M,1999-12,2023-02-02,,1,O52
23020243,PRAMAISI AFRA MAULIDITA,pramaisi.maulidita@bankmega.com,+6282208222114,F,1997-07,2023-02-02,,1,O52
23020238,GABRIEL VIERI,gabriel.vieri@bankmega.com,+6282208223196,M,1999-10,2023-02-02,,1,O52
23020244,RAKA LUTHFI,raka.luthfi@bankmega.com,+6282208222640,M,1998-09,2023-02-02,,1,O52
01052272,HADI RISWANTO,hadi.riswanto@bankmega.com,+6282208225776,M,1978-06,2001-05-08,,1,O52
23020245,REFANIE FAJRINA SALMA,refanie.salma@bankmega.com,+6282208222223,F,1999-06,2023-02-02,,1,O52
22020183,ALDIAN FIRMANSYAH,aldian.firmansyah@bankmega.com,+6282208229611,M,1996-12,2022-02-02,,1,O52
23020246,TANDA JATININGSIH,tanda.jatiningsih@bankmega.com,+6282208222604,F,1997-08,2023-02-02,,1,O52
23030402,IKBAL GAZALBA,ikbal.gazalba@bankmega.com,,M,1995-11,2023-03-01,,1,O52
23020237,FIQIH FATHOR RACHIM,fiqih.rachim@bankmega.com,+6282208223912,M,1998-04,2023-02-02,,1,O52
98100520,R. ANI TEDJA PAMEKAS,ani.pamekas@bankmega.com,+6282208225527,F,1969-02,1998-10-01,,1,O52
23020236,FARHAN FAUZAN MUHARAM,farhan.muharam@bankmega.com,+6282208223611,M,1996-09,2023-02-02,,1,O52
22112028,JIMMY SANJAYA,jimmy.sanjaya@bankmega.com,,M,1996-04,2022-11-23,,1,O52
22112088,RAMA MUHARAM,rama.muharam@bankmega.com,,M,1995-06,2022-11-23,,1,O52
06026846,NOVA MUHARAM,nova.muharam@bankmega.com,+6282208229043,M,1981-11,2006-02-13,,1,O52
22122077,YULI,yuli.yuli@bankmega.com,+6282208228006,F,1985-07,2022-12-01,,1,O52
22122087,GANTANG THOLE RIANTO,gantang.rianto@bankmega.com,,M,1993-01,2022-12-01,,1,O52
05076034,BERNADETTE DEVI HARDONO,bernadette.devi@bankmega.com,+6282208229684,F,1979-05,2005-07-04,,1,O52
05106438,SETIYO NUGROHO,setiyo.nugroho@bankmega.com,+6282208225784,M,1969-09,2005-10-17,,1,O52
23020232,ADILIA RAHMAWATI,adilia.rahmawati@bankmega.com,+6282208226170,F,2000-11,2023-02-02,,1,O52
23020233,ADINDA INEZ SANG,adinda.sang@bankmega.com,+6282208227506,F,1999-08,2023-02-02,,1,O52
23020234,ALVIN NOBEL KHUSNA,alvin.khusna@bankmega.com,+6282208227920,M,1998-09,2023-02-02,,1,O52
23020235,ANDRIANTO SAPUTRA LINARDI LIE,andrianto.lie@bankmega.com,+6282208227333,M,2000-10,2023-02-02,,1,O52
22050660,SIVI ALMANAF ALI SHAHAB,sivi.shahab@bankmega.com,+6282208220972,M,1990-08,2022-05-18,,1,O52
23010004,TANTUT WAHYU SETYOKO,tantut.setyoko@bankmega.com,,M,1998-03,2023-01-02,,1,O52
22050560,AMBARWATI,ambarwati.1@bankmega.com,,F,1996-05,2022-05-09,,1,O52
22101735,RAY CLEMENT ANAKOTTA,ray.anakotta@bankmega.com,,M,1991-05,2022-10-03,,1,O52
21040500,M. RANDITAMA NUGRAHA,randitama.nugraha@bankmega.com,+6282208220598,M,1997-07,2021-04-05,,1,O52
12111686,OKTAVIANUS VENDY ARYANTO,oktavianus.vendy@bankmega.com,+6282208229696,M,1981-10,2012-11-19,,1,O52
10040751,RACHMAD DWI BASUKI,rachmad.basuki@bankmega.com,+6282208224682,M,1984-06,2010-04-19,,1,O52
21091328,RIZKI ABDUL ROZAK,rizki.rozak@bankmega.com,+6282208229238,M,1994-07,2021-09-06,,1,O52
12057590,DWI ADMOJO,dwi.admojo@bankmega.com,+6282208221588,M,1988-12,2012-05-15,,1,O52
11045514,DICKY SATRIA,dicky.satria@bankmega.com,+6282208220563,M,1982-03,2011-04-01,,1,O52
21030285,DWYKIE ALEXANDRA,dwykie.alexandra@bankmega.com,+6282208228294,M,1993-06,2021-03-01,,1,O52
23020240,KRIZAN WIJAYAKUSUMAH,krizan.wijayakusumah@bankmega.com,+6282208226994,M,1998-10,2023-02-02,,1,O52
21070939,MOCHAMMAD SYACHRUL,mochammad.syachrul@bankmega.com,+6282208228720,M,1994-06,2021-07-05,,1,O52
16104819,ADITYA JOKO UTOMO,aditya.utomo@bankmega.com,,M,1985-07,2016-10-17,,1,O52
19021645,BIA ARDY PERMANA,bia.permana@bankmega.com,+6282208221959,M,1990-07,2019-02-20,,1,O52
18100799,ANDI EKO SAPUTRO,andi.saputro@bankmega.com,+6282208224672,M,1993-01,2018-10-15,,1,O52
21060784,ALI ZAENAL ABIDIN,ali.abidin@bankmega.com,+6282208229492,M,1997-12,2021-06-07,,1,O52
21050659,SYAFI MUHAMMAD TAUHID,syafi.tauhid@bankmega.com,+6282208222167,M,1994-09,2021-05-17,,1,O52
14038340,IRMANTY SITUMORANG,irmanty.situmorang@bankmega.com,+6282208223586,F,1988-03,2014-03-17,,1,O52
19092907,HARI TAVIANTORO,hari.taviantoro@bankmega.com,+6282208220185,M,1965-08,2019-09-25,,1,O52
22010137,DIO CAHYA RAMADHAN,dio.ramadhan@bankmega.com,+6282208229178,M,1999-01,2022-01-24,,1,O52
22010011,ALBERTUS ADITYA WISNU W,albertus.wisnu@bankmega.com,+6282208228526,M,1995-02,2022-01-03,,1,O52
21111750,KHAERUL ISTAFA,khaerul.istafa@bankmega.com,+6282208220446,M,2000-10,2021-11-15,,1,O52
21040499,ADE IKHSAN,ade.ikhsan@bankmega.com,+6282208228518,M,1975-01,2021-04-05,,1,O52
12078997,YUSUF ATZRULRUDIN TJANDRA,yusuf.tjandra@bankmega.com,+6282208229301,M,1981-11,2012-07-02,,1,O52
20014214,NUR FIKRI,nur.fikri@bankmega.com,+6282208222920,M,1987-06,2020-01-09,,1,O52
15020509,KURNIA RIZQIANI,kurnia.rizqiani@bankmega.com,+6282208220876,F,1986-05,2015-02-23,,1,O52
17128633,MULYA HARDI,mulya.hardi@bankmega.com,+6282208225720,M,1995-08,2019-05-29,,1,O52
10092602,SISKA NOVIANDANI,siska.noviandani@bankmega.com,+6282208229041,F,1986-11,2010-09-20,,1,O52
21101604,DANDI DIRGANTARA SAKTI,dandi.sakti@bankmega.com,+6282208226248,M,1996-08,2021-10-21,,1,O52
15060953,DEDY CURYANI,dedy.curyani@bankmega.com,+6282208220055,M,1965-12,2015-06-29,,1,O59
15040724,MUH. AKBAR,m.akbar@bankmega.com,+6282208229937,M,1990-04,2015-04-27,,1,O59
15050764,ADNAN TANJUNG,adnan.tanjung@bankmega.com,+6282208223992,M,1990-07,2015-05-04,,1,O59
04094923,ACHMAD IWAN,achmad.iwan@bankmega.com,+6282208228208,M,1977-05,2004-09-01,,1,O59
19011438,SRI IVAN MADRIANSYAH,ivan.madriansyah@bankmega.com,+6282208229958,M,1997-04,2020-05-04,,1,O59
02012890,BOWO TRI YUWONO,bowo.tri@bankmega.com,+6282208220892,M,1976-10,2002-01-14,,1,O59
19102936,DWI WARDIYANTO,dwi.wardiyanto@bankmega.com,+6282208228554,M,1996-01,2019-10-01,,1,O59
16074120,IRFAN NURHAKIM,irfan.nurhakim@bankmega.com,+6282208221662,M,1991-03,2016-07-20,,1,O59
04064704,FIRMAN NUR,firman.nur@bankmega.com,,M,1980-01,2004-06-01,,1,O59
19103061,RAHADIAN MAULA OKTARA,rahadian.oktara@bankmega.com,+6282208222739,M,1988-10,2019-10-21,,1,O59
15050789,MILFAN PADLI,milfan.padli@bankmega.com,+6282208223583,M,1987-09,2015-05-11,,1,O59
01072460,MUTIA MAHDALENA,mutia.mahdalena@bankmega.com,+6282208225294,F,1978-01,2001-07-23,,1,O59
19103015,REZA PAHLAWAN,reza.pahlawan@bankmega.com,,M,1990-08,2019-10-17,,1,O59
04044499,ASIK HARWANTO,asik.harwanto@bankmega.com,+6282208225647,M,1974-09,2004-04-01,,1,O59
02053093,AGAHM VIDYAWAN,agahm.vidyawan@bankmega.com,+6282208222494,M,1977-10,2002-05-01,,1,O59
16114969,AGUSTINUS KRISMA ADI PRATAMA,agustinus.pratama@bankmega.com,+6282208223318,M,1988-08,2016-11-07,,1,O59
23020265,RAFLIQ RAMADHAN,rafliq.ramadhan@bankmega.com,+6282208229159,M,2000-08,2023-02-02,,1,O59
23020266,RISKI SAPUTRA,riski.saputra@bankmega.com,+6282208222676,M,1999-08,2023-02-02,,1,O59
23020267,RIZKY PRASETYANTO,rizky.prasetyanto@bankmega.com,+6282208222769,M,1996-07,2023-02-02,,1,O59
23020268,YAYAN SAPUTRO,yayan.saputro@bankmega.com,+6282208222965,M,1996-11,2023-02-02,,1,O59
18039077,HARDYANTO ROBIULL,hardyanto.robiull@bankmega.com,+6282208229201,M,1993-08,2018-03-05,,1,O59
18059569,OKKY NAUFAL RAMZI,okky.ramzi@bankmega.com,+6282208220757,M,1988-10,2018-05-02,,1,O59
23030453,BUDIYANTO,budiyanto.budiyanto@bankmega.com,,M,1987-03,2023-03-15,,1,O59
18060037,MUHAMMAD FATHIN GUSTIAN,fathin.gustian@bankmega.com,+6282208225981,M,1995-12,2018-06-25,,1,O59
01011896,ADAM AFANDI,adam.afandi@bankmega.com,+6282208225646,M,1975-01,2001-01-08,,1,O59
99080715,PRITA RUVITA KUSUMAWARDHANI,prita.ruvita@bankmega.com,+6282208222199,F,1972-09,1999-08-02,,1,O59
00051120,TUMPAL SITOMPUL,tumpal.sitompul@bankmega.com,+6282208225649,M,1971-07,2000-05-08,,1,O59
23020263,RAFFI ZAUTHA HANNIF,raffi.hannif@bankmega.com,+6282208229410,M,1998-12,2023-02-02,,1,O59
23020262,MUHAMMAD NIZAR MIFTAHUL ULYA,nizar.ulya@bankmega.com,+6282208229300,M,1999-08,2023-02-02,,1,O59
23020260,MUHAMAD HAERUL ANWAR,haerul.anwar@bankmega.com,+6282208229852,M,1998-02,2023-02-02,,1,O59
17035902,LUKMAN HASYIM,lukman.hasyim@bankmega.com,+6282208223319,M,1988-02,2017-03-01,,1,O59
17107989,RUDI PRASETYO,rudi.prasetyo@bankmega.com,+6282208223836,M,1982-11,2017-10-30,,1,O59
23020254,FARHAN YULEO PRATAMA,farhan.pratama@bankmega.com,+6282208227199,M,1999-07,2023-02-02,,1,O59
18100701,MUHAMAD JUBAED,muhamad.jubaed@bankmega.com,+6282208227371,M,1989-10,2018-10-01,,1,O59
23020248,AHMAD SUDRAJAT AFANDI,ahmad.afandi@bankmega.com,+6282208222754,M,1998-04,2023-02-02,,1,O59
23020250,ANTARIF EKADHIA CAHYADI,antarif.cahyadi@bankmega.com,+6282208227435,M,1996-03,2023-02-02,,1,O59
23020251,DERYANDARU BHASKARA,deryandaru.bhaskara@bankmega.com,+6282208228643,M,1997-02,2023-02-02,,1,O59
23020252,DICKY RAFSANJANI,dicky.rafsanjani@bankmega.com,+6282208227295,M,1997-05,2023-02-02,,1,O59
23020253,DONI ADITYA PRATAMA,doni.pratama@bankmega.com,+6282208227532,M,1998-04,2023-02-02,,1,O59
23020256,HILMY RIFALDI,hilmy.rifaldi@bankmega.com,+6282208227497,M,1998-12,2023-02-02,,1,O59
23020258,JOSMAN EFENDI,josman.efendi@bankmega.com,+6282208227256,M,1995-07,2023-02-02,,1,O59
00031052,SIGIT WINARKO,sigit.winarko@bankmega.com,+6282208225079,M,1972-04,2000-03-22,,1,O59
04115160,AKHMAD SYAIFI,akhmad.syaifi@bankmega.com,+6282208227111,M,1968-11,2004-11-22,,1,O59
09087004,CHANDRA KAUTSAR,chandra.kautsar@bankmega.com,+6282208223789,M,1985-06,2009-08-03,,1,O59
08052557,AGUS CATUR KUNCORO,agus.kuncoro@bankmega.com,+6282208224153,M,1982-08,2008-05-05,,1,O59
08052555,ABDUL ROJAK,abdul.rojak@bankmega.com,+6282208224152,M,1983-07,2008-05-05,,1,O59
21091286,DIMAS RAMADHAN,dimas.ramadhan@bankmega.com,,M,1990-04,2021-09-01,,1,O59
21081200,EKO SIWI MURTONO,eko.murtono@bankmega.com,+6282208226413,M,1990-11,2021-08-16,,1,O59
22060760,ANANDA SHANDY TAMA,ananda.tama@bankmega.com,,M,1997-10,2022-06-06,,1,O59
22060761,MUHAMMAD SYAHRI,muh.syahri@bankmega.com,,M,1997-03,2022-06-06,,1,O59
10050826,BUDI SANTOSO,budi.santoso@bankmega.com,+6282208228335,M,1986-06,2010-05-03,,1,O59
08063053,HANDRYAMIN SANGA LIAT,handryamin.sangaliat@bankmega.com,+6282208228507,M,1978-09,2008-06-25,,1,O59
21081121,RAMANDHA ADAM RAHARJO,ramandha.raharjo@bankmega.com,,M,1995-02,2021-08-09,,1,O59
21070909,MOHAMAD ALFIS DAVA CAHYOGA,alfis.cahyoga@bankmega.com,,M,1998-05,2021-07-01,,1,O59
08052573,AKHMAD HAFIZH,akhmad.hafizh@bankmega.com,+6282208220107,M,1980-05,2008-05-06,,1,O59
21091409,SUPRIYANTO,supriyanto.supriyanto@bankmega.com,+6282208229143,M,1993-04,2021-09-15,,1,O59
22050581,MUHAMMAD IRVAN,muh.irvan@bankmega.com,,M,1996-09,2022-05-09,,1,O59
22010001,SUGIH HARTANTO,sugih.hartanto@bankmega.com,+6282208223102,M,1982-11,2022-01-03,,1,O59
09066301,ANDY IRAWAN,andy.irawan@bankmega.com,+6282208225073,M,1976-02,2009-06-09,,1,O59
09128410,KI AGUS MUHAMAD FAUZI,kiagus.fauzi@bankmega.com,+6282208228209,M,1981-08,2009-12-07,,1,O59
22030455,ARIF RAHADI PRASETYA,arif.prasetya@bankmega.com,,M,1995-05,2022-03-10,,1,O59
10030267,PAJAR AHMAD KURNIAWAN,pajar.kurniawan@bankmega.com,+6282208222495,M,1987-09,2010-03-17,,1,O59
22040541,I GUSTI AGUNG APRILIANA SAPUTRA,igusti.saputra@bankmega.com,,M,1989-04,2022-04-25,,1,O59
10039711,IDHAM KHOLID,idham.kholid@bankmega.com,+6282208224516,M,1982-07,2010-03-01,,1,O59
22050559,IRFAN AKBAR,irfan.akbar@bankmega.com,,M,1999-04,2022-05-09,,1,O59
21091456,EDY KUSNANTO,edy.kusnanto@bankmega.com,+6282208220644,M,1973-03,2021-09-27,,1,O59
22050580,REZA RAMADHAN,reza.ramadhan@bankmega.com,,M,1996-02,2022-05-09,,1,O59
08042286,JOHAN,johan.tan@bankmega.com,+6282208222493,M,1978-11,2008-04-14,,1,O59
21070908,MOHAMAD FAJAR NURHUDA,fajar.nurhuda@bankmega.com,,M,1988-08,2021-07-01,,1,O59
18070100,GILANG HERWIANTO,gilang.herwianto@bankmega.com,+6282208227496,M,1993-10,2018-07-02,,1,O59
12079676,RANI PERMATA SARI,rani.sari@bankmega.com,+6282208226738,F,1985-11,2012-07-26,,1,O59
12122104,SANDY RISHI PRAMANA,sandy.permana@bankmega.com,+6282208224109,M,1986-07,2012-12-10,,1,O59
20080913,MARTHIN DAHLIN,marthin.dahlin@bankmega.com,,M,1994-07,2020-08-10,,1,O59
20070841,ARI ARIADI,ari.ariadi@bankmega.com,+6282208223451,M,1988-01,2020-07-06,,1,O59
22122153,MUHAMAD RIZKY ALVIN AFRIANDY,rizky.afriandy@bankmega.com,,M,1993-02,2022-12-15,,1,O59
14099458,AHMAD SUTEJO,ahmad.sutejo@bankmega.com,+6282208224108,M,1988-04,2014-09-01,,1,O59
19092835,IRWAN KURNIAWAN,irwan.kurniawan@bankmega.com,,M,1987-05,2019-09-16,,1,O59
19124174,TOMMY ARMANDO MANURUNG,tommy.manurung@bankmega.com,+6282208228399,M,1996-01,2019-12-09,,1,O59
19124173,ADITYA RADIFAN,aditya.radifan@bankmega.com,,M,1995-04,2019-12-04,,1,O59
21010001,FAHMI SAIMIMA,fahmi.saimima@bankmega.com,+6282208228723,M,1981-05,2021-01-04,,1,O59
06118237,HENDRA APRILIYONO,hendra.ap@bankmega.com,+6282208227218,M,1977-04,2006-11-29,,1,O59
22101738,WAHYU HIDAYAT,wahyu.hidayat@bankmega.com,,M,1982-05,2022-10-03,,1,O59
21060785,ZAINAL ABIDIN,zainal.abidin.1@bankmega.com,,M,1997-01,2021-06-07,,1,O59
17035939,MUHAMMAD YULIANDRI, muhammad.yuliandri@bankmega.com,+6282208224101,M,1994-07,2017-03-06,,1,O59
22071125,PUTUT ARYA HARYANTO,putut.haryanto@bankmega.com,+6282208228081,M,1977-11,2022-07-18,,1,O59
06067244,BAYU SUSILO,bayu.susilo@bankmega.com,+6282208225988,M,1973-12,2006-06-26,,1,O59
22081342,JULIO,julio.julio@bankmega.com,,M,1991-07,2022-08-08,,1,O59
07110886,SURYA ARDIANTO,surya.ardianto@bankmega.com,+6282208227932,M,1982-09,2007-11-26,,1,O59
11079790,CARRIS JUNIARSA,carris.juniarsa@bankmega.com,+6282208228659,M,1971-06,2011-07-27,,1,O59
07018544,SYAMSU WINOTO,syamsu.winoto@bankmega.com,+6282208224154,M,1982-12,2007-01-08,,1,O59
21030436,MUHAMMAD GHIFFARI,muhammad.ghiffari@bankmega.com,+6282208223627,M,1998-04,2022-03-18,,1,O59
06128473,BESLI TAMPUBOLON,besli.tampubolon@bankmega.com,+6282208228207,M,1978-08,2006-12-18,,1,O59
05045747,DYAH ASRINING WULANDARI,dyah.aw@bankmega.com,,F,1982-05,2005-04-18,,1,O59
